<?xml version="1.0" encoding="UTF-8" standalone="no"?>
<!-- Created with Inkscape (http://www.inkscape.org/) -->

<svg
   width="180"
   height="180"
   viewBox="0 0 180 180"
   version="1.1"
   id="svg5"
   xmlns="http://www.w3.org/2000/svg"
   xmlns:svg="http://www.w3.org/2000/svg"
   xmlns:rdf="http://www.w3.org/1999/02/22-rdf-syntax-ns#"
   xmlns:cc="http://creativecommons.org/ns#">
  <defs
     id="defs2" />
  <g
     id="layer1">
    <circle
       style="opacity:1;fill:#000000"
       id="path846"
       cx="90"
       cy="90"
       r="74.062401" />
    <circle
       style="opacity:1;fill:#ffffff;stroke-width:1.58875"
       id="path1060"
       cx="90"
       cy="90"
       r="64.546364" />
    <circle
       style="opacity:1;fill:#000000;stroke-width:0.845527"
       id="path1208"
       cx="90"
       cy="90"
       r="49.088505" />
    <circle
       style="opacity:1;fill:#ffffff;stroke-width:1.13717"
       id="path1334"
       cx="90"
       cy="90"
       r="41.5742" />
    <rect
       style="opacity:1;fill:#000000;stroke-width:0.838469"
       id="rect1462"
       width="15.197837"
       height="9.572834"
       x="169.14008"
       y="-17.962927"
       transform="rotate(52.171793)" />
    <rect
       style="opacity:1;fill:#000000;stroke:#000000;stroke-width:0.892313;stroke-opacity:1"
       id="rect1566"
       width="5.628942"
       height="56.289425"
       x="77.356323"
       y="61.434402" />
    <rect
       style="opacity:1;fill:#000000;stroke:#000000;stroke-width:0.735172;stroke-opacity:1"
       id="rect1670"
       width="10.745842"
       height="5.0202451"
       x="82.985268"
       y="61.434402" />
    <rect
       style="fill:#000000;stroke:#000000;stroke-width:0.735172;stroke-opacity:1"
       id="rect1670-3"
       width="10.745842"
       height="5.0202451"
       x="82.948296"
       y="80.978256" />
    <path
       style="fill:#000000;fill-opacity:1;stroke:#000000;stroke-width:1px;stroke-linecap:butt;stroke-linejoin:miter;stroke-opacity:1"
       d="m 93.662366,85.901505 4.479832,-0.205238 3.959572,-2.778451 3.20367,-3.73381 1.47636,-4.065444 -0.0686,-3.777282 -2.30299,-6.429559 -5.309992,-3.106271 -5.369121,-0.346129 10e-6,4.99533 5.133311,1.507437 2.766492,4.615267 -2.152392,5.534034 -5.816152,2.794785 z"
       id="path3010" />
  </g>
  <metadata
     id="metadata7151">
    <rdf:RDF>
      <cc:Work
         rdf:about="">
        <cc:license
           rdf:resource="http://creativecommons.org/licenses/by/4.0/" />
      </cc:Work>
      <cc:License
         rdf:about="http://creativecommons.org/licenses/by/4.0/">
        <cc:permits
           rdf:resource="http://creativecommons.org/ns#Reproduction" />
        <cc:permits
           rdf:resource="http://creativecommons.org/ns#Distribution" />
        <cc:requires
           rdf:resource="http://creativecommons.org/ns#Notice" />
        <cc:requires
           rdf:resource="http://creativecommons.org/ns#Attribution" />
        <cc:permits
           rdf:resource="http://creativecommons.org/ns#DerivativeWorks" />
      </cc:License>
    </rdf:RDF>
  </metadata>
</svg>
